<?xml version="1.0"?>
<svg xmlns="http://www.w3.org/2000/svg" xmlns:xlink="http://www.w3.org/1999/xlink" version="1.1" id="Capa_1" x="0px" y="0px" viewBox="0 0 50 50" style="enable-background:new 0 0 50 50;" xml:space="preserve" width="512px" height="512px" class=""><g><g>
	<rect y="2" width="50" height="4" data-original="#000000" class="active-path" data-old_color="#F6F3F3" fill="#FBFAFA"/>
	<rect y="16" width="50" height="4" data-original="#000000" class="active-path" data-old_color="#F6F3F3" fill="#FBFAFA"/>
	<rect y="30" width="50" height="4" data-original="#000000" class="active-path" data-old_color="#F6F3F3" fill="#FBFAFA"/>
	<rect y="44" width="50" height="4" data-original="#000000" class="active-path" data-old_color="#F6F3F3" fill="#FBFAFA"/>
</g></g> </svg>
