<?xml version="1.0" encoding="utf-8"?>
<!-- Generator: Adobe Illustrator 19.0.0, SVG Export Plug-In . SVG Version: 6.00 Build 0)  -->
<svg version="1.1" id="Layer_1" xmlns="http://www.w3.org/2000/svg" xmlns:xlink="http://www.w3.org/1999/xlink" x="0px" y="0px"
	 viewBox="0 0 523.3 178.4" style="enable-background:new 0 0 523.3 178.4;" xml:space="preserve">
<style type="text/css">
	.st0{fill:#C54E2B;}
	.st1{fill:#FFFFFF;}
</style>
<path id="XMLID_56_" class="st0" d="M165.3,106.4l36.5,19.9V57.7l-36.5,19.9V106.4z M165.3,106.4"/>
<path id="XMLID_55_" class="st0" d="M147.6,137.4H59.6c-5.9,0-10.6-4.8-10.6-10.6V57c0-5.9,4.8-10.6,10.6-10.6h88.1
	c5.9,0,10.6,4.8,10.6,10.6v37l8.6-40.6c2.4-11.3-4.9-22.5-16.2-24.9L51,7.3c-11.3-2.4-22.5,4.9-24.9,16.2L4.9,123.2
	c-2.4,11.3,4.9,22.5,16.2,24.9l99.7,21.2c11.3,2.4,22.5-4.9,24.9-16.2l3.4-15.8C148.6,137.4,148.1,137.4,147.6,137.4z"/>
<path id="XMLID_53_" class="st1" d="M282.4,65.7c-2.5-3.1-5.4-5.5-8.6-7.2c-3.2-1.7-6.9-2.6-11-2.6c-3.4,0-6.6,0.7-9.5,2.1
	c-2.9,1.4-5.4,3.3-7.6,5.7c-2.1,2.4-3.8,5.1-5.1,8.1c-1.2,3-1.8,6.2-1.8,9.5c0,3.3,0.6,6.6,1.9,9.7c1.3,3.1,3,5.8,5.2,8.2
	c2.2,2.4,4.8,4.3,7.8,5.7c3,1.4,6.1,2.1,9.6,2.1c4,0,7.4-0.8,10.3-2.5c2.9-1.7,5.6-3.9,8.1-6.8h15.9c-1.4,3.3-3.3,6.4-5.7,9.1
	c-2.4,2.7-5,5-8.1,6.9c-3,1.9-6.3,3.4-9.8,4.4c-3.5,1.1-7,1.6-10.5,1.6c-5.3,0-10.3-1-15-3.1c-4.7-2-8.7-4.8-12.2-8.4
	c-3.5-3.5-6.2-7.7-8.2-12.4s-3-9.7-3-14.9c0-5.2,1-10.1,3-14.7s4.8-8.6,8.2-12.1c3.5-3.4,7.5-6.2,12.1-8.2c4.6-2,9.5-3,14.8-3
	c3.7,0,7.4,0.5,10.9,1.6c3.5,1.1,6.8,2.6,9.8,4.5c3,1.9,5.7,4.3,8.1,7.1s4.4,5.9,5.9,9.4H282.4z"/>
<path id="XMLID_51_" class="st1" d="M360.8,43.3v76.5h-14.2V68.6h-0.1l-35.3,51.3h-17.1l53.8-76.5H360.8z"/>
<path id="XMLID_49_" class="st1" d="M407.7,49.3c2.6,2.2,4.5,4.9,5.6,7.9c1.2,3,1.7,6.2,1.7,9.7c0,3.5-0.6,6.7-1.7,9.7s-3,5.7-5.6,8
	c-1.6,1.4-3.3,2.6-5,3.4c-1.7,0.8-3.4,1.4-5.2,1.8c-1.8,0.4-3.6,0.7-5.5,0.8c-1.9,0.1-3.9,0.2-6,0.2h-1.7V77.3h0.3
	c1.8,0,3.7-0.1,5.6-0.3s3.6-0.7,5.2-1.4c1.6-0.7,2.8-1.8,3.8-3.1c1-1.4,1.5-3.2,1.5-5.6c0-2.3-0.5-4.2-1.4-5.6
	c-0.9-1.4-2.1-2.5-3.6-3.2c-1.5-0.7-3.2-1.2-5-1.4c-1.8-0.2-3.7-0.3-5.5-0.3H380v63.6h-14.2V43H386c2.1,0,4.1,0,6,0.2
	c1.9,0.1,3.7,0.4,5.5,0.8c1.8,0.4,3.5,1,5.2,1.8C404.4,46.6,406,47.8,407.7,49.3z"/>
<path id="XMLID_47_" class="st1" d="M468.4,52.1c2,1.8,3.8,3.9,5.4,6.2c1.6,2.3,2.9,4.8,3.9,7.3c1.1,2.6,1.9,5.2,2.4,8
	c0.5,2.8,0.8,5.5,0.8,8.2c0,3.3-0.4,6.5-1.2,9.8c-0.8,3.2-2,6.3-3.5,9.2c-1.5,2.9-3.4,5.6-5.7,8c-2.3,2.4-4.9,4.4-7.8,6.1
	c-3.7,2-7.8,3.4-12.3,4c-4.5,0.6-8.9,1-13.1,1h-17.7v-13.3h14.2h3.1c3.4,0,6.6-0.2,9.5-0.6c2.9-0.4,6-1.4,9.1-3.1
	c1.8-1,3.5-2.3,5-3.8s2.7-3.2,3.6-5.1c1-1.8,1.7-3.8,2.2-5.9c0.5-2.1,0.8-4.2,0.8-6.3c0-3.5-0.7-7-2.1-10.3
	c-1.4-3.3-3.5-6.2-6.1-8.6c-1.8-1.6-3.6-2.8-5.6-3.6c-2-0.9-4-1.5-6.1-1.9c-2.1-0.4-4.3-0.7-6.5-0.8c-2.2-0.1-4.4-0.2-6.7-0.2h-14.2
	V43.2h17.4c2.7,0,5.4,0.1,8.2,0.4c2.8,0.2,5.6,0.7,8.4,1.4c2.8,0.7,5.4,1.6,7.9,2.7C463.9,48.8,466.3,50.3,468.4,52.1z"/>
<polygon id="XMLID_46_" class="st1" points="490.5,43.4 473.9,43.4 473.9,56.5 490.5,56.5 490.5,56.5 490.5,119.9 504.7,119.9 
	504.7,56.5 519,56.5 519,43.4 "/>
<g id="XMLID_31_">
	<path id="XMLID_32_" class="st0" d="M254.4,147.5c-0.6,0.9-1.4,1.6-2.4,2.1c-1.1,0.5-2.4,0.8-3.9,0.8c-2.3,0-4.2-0.5-5.6-1.6
		c-1.5-1.1-2.3-2.6-2.4-4.7h5.8c0.1,0.7,0.3,1.2,0.6,1.5c0.4,0.3,0.8,0.5,1.4,0.5c0.5,0,0.9-0.1,1.1-0.4c0.3-0.2,0.4-0.6,0.4-1
		c0-0.6-0.3-1.1-0.8-1.4c-0.5-0.3-1.4-0.7-2.6-1.1c-1.2-0.4-2.3-0.8-3.1-1.3c-0.8-0.4-1.5-1-2.1-1.8c-0.6-0.8-0.9-1.9-0.9-3.1
		c0-1.2,0.3-2.3,0.9-3.2s1.5-1.5,2.6-2c1.1-0.5,2.3-0.7,3.7-0.7c2.3,0,4.1,0.5,5.4,1.6c1.3,1.1,2.1,2.6,2.2,4.5H249
		c-0.1-0.6-0.3-1.1-0.6-1.4c-0.3-0.3-0.7-0.4-1.2-0.4c-0.4,0-0.8,0.1-1,0.3c-0.2,0.2-0.4,0.6-0.4,1c0,0.6,0.3,1,0.8,1.3
		c0.5,0.3,1.4,0.7,2.5,1.1c1.2,0.4,2.3,0.9,3.1,1.3c0.8,0.4,1.5,1,2.1,1.9c0.6,0.8,0.9,1.9,0.9,3.2
		C255.3,145.6,255,146.6,254.4,147.5z"/>
	<path id="XMLID_34_" class="st0" d="M296.6,130.5v4.4h-5.3v15.3h-5.4v-15.3h-5.2v-4.4H296.6z"/>
	<path id="XMLID_36_" class="st0" d="M327.9,130.5v11.2c0,1.1,0.2,2,0.7,2.6s1.2,0.9,2.2,0.9c1,0,1.8-0.3,2.3-0.9
		c0.5-0.6,0.8-1.5,0.8-2.6v-11.2h5.4v11.2c0,1.9-0.4,3.4-1.1,4.7c-0.7,1.3-1.8,2.3-3.1,2.9c-1.3,0.7-2.8,1-4.4,1
		c-1.6,0-3.1-0.3-4.3-1c-1.3-0.6-2.2-1.6-2.9-2.9c-0.7-1.3-1.1-2.9-1.1-4.7v-11.2H327.9z"/>
	<path id="XMLID_38_" class="st0" d="M383.2,145.4c-0.8,1.5-2,2.7-3.6,3.5c-1.5,0.9-3.3,1.3-5.4,1.3h-7.8v-19.7h7.8
		c2.1,0,3.9,0.4,5.4,1.2c1.5,0.8,2.7,2,3.6,3.5c0.8,1.5,1.2,3.2,1.2,5.1S384,143.9,383.2,145.4z M377.5,144c0.9-0.9,1.4-2.1,1.4-3.7
		c0-1.6-0.5-2.8-1.4-3.7c-0.9-0.9-2.2-1.3-3.8-1.3h-1.9v10h1.9C375.3,145.3,376.6,144.9,377.5,144z"/>
	<path id="XMLID_41_" class="st0" d="M416.5,130.5v19.7h-5.5v-19.7H416.5z"/>
	<path id="XMLID_43_" class="st0" d="M458.3,131.5c1.5,0.9,2.7,2.1,3.6,3.6c0.9,1.5,1.3,3.3,1.3,5.2c0,1.9-0.4,3.7-1.3,5.2
		c-0.9,1.5-2.1,2.7-3.6,3.6c-1.5,0.9-3.2,1.3-5,1.3c-1.8,0-3.5-0.4-5.1-1.3c-1.5-0.9-2.7-2.1-3.6-3.6c-0.9-1.5-1.3-3.3-1.3-5.2
		c0-1.9,0.4-3.7,1.3-5.2c0.9-1.5,2.1-2.7,3.6-3.6c1.5-0.9,3.2-1.3,5.1-1.3C455,130.2,456.7,130.7,458.3,131.5z M449.9,136.6
		c-0.8,0.9-1.2,2.1-1.2,3.7c0,1.5,0.4,2.7,1.2,3.6c0.8,0.9,1.9,1.4,3.3,1.4c1.4,0,2.5-0.5,3.2-1.4c0.8-0.9,1.2-2.1,1.2-3.6
		c0-1.6-0.4-2.8-1.2-3.7c-0.8-0.9-1.9-1.3-3.3-1.3C451.8,135.3,450.7,135.7,449.9,136.6z"/>
	<path id="XMLID_59_" class="st0" d="M503.6,147.5c-0.6,0.9-1.4,1.6-2.4,2.1c-1.1,0.5-2.4,0.8-3.9,0.8c-2.3,0-4.2-0.5-5.6-1.6
		c-1.5-1.1-2.3-2.6-2.4-4.7h5.8c0.1,0.7,0.3,1.2,0.6,1.5c0.4,0.3,0.8,0.5,1.4,0.5c0.5,0,0.9-0.1,1.1-0.4c0.3-0.2,0.4-0.6,0.4-1
		c0-0.6-0.3-1.1-0.8-1.4c-0.5-0.3-1.4-0.7-2.6-1.1c-1.2-0.4-2.3-0.8-3.1-1.3c-0.8-0.4-1.5-1-2.1-1.8c-0.6-0.8-0.9-1.9-0.9-3.1
		c0-1.2,0.3-2.3,0.9-3.2c0.6-0.9,1.5-1.5,2.6-2c1.1-0.5,2.3-0.7,3.7-0.7c2.3,0,4.1,0.5,5.4,1.6c1.3,1.1,2.1,2.6,2.2,4.5h-5.9
		c-0.1-0.6-0.3-1.1-0.6-1.4c-0.3-0.3-0.7-0.4-1.2-0.4c-0.4,0-0.8,0.1-1,0.3c-0.2,0.2-0.4,0.6-0.4,1c0,0.6,0.3,1,0.8,1.3
		c0.5,0.3,1.4,0.7,2.5,1.1c1.2,0.4,2.3,0.9,3.1,1.3c0.8,0.4,1.5,1,2.1,1.9c0.6,0.8,0.9,1.9,0.9,3.2
		C504.5,145.6,504.2,146.6,503.6,147.5z"/>
</g>
</svg>
